// SWIG command to generate JNI wrappers:
// swig -c++ -java -package org.janelia.simview.klb.jni -outdir ../javaWrapper/src/main/java/org/janelia/simview/klb/jni/ -o klb_jni.cxx -oh klb_jni.h klb.i

%module Klb

%include "typemaps.i"
%include "stdint.i"
%include "std_string.i"
%include "carrays.i"
%include "exception.i"

// Java-specific includes
#if SWIGJAVA
	%include "arrays_java.i"
	%include "various.i"
	%include "enums.swg"
#endif


// don't expose block offsets
%ignore klb_image_header::Nb;
%ignore klb_image_header::blockOffset;
%ignore klb_image_header::getBlockOffset;
%ignore klb_image_header::resizeBlockOffset;

// don't expose C read/write operations
%ignore klb_image_header::readHeader(std::istream &fid);
%ignore klb_image_header::writeHeader(std::ostream &fid);
%ignore klb_image_header::writeHeader(FILE* fid);
%ignore klb_imageIO::writeImageStackSlices(const char** BYTE, int numThreads);

// hide unnecessary members and functions
%ignore KLB_METADATA_SIZE;
%ignore klb_image_header::operator=;
%ignore klb_image_header::cloneMetadata;
%ignore klb_image_header::getSizeInBytes;
%ignore klb_image_header::getSizeInBytesFixPortion;
%ignore klb_image_header::getBlockCompressedSizeBytes;
%ignore klb_image_header::getCompressedFileSizeInBytes;
%ignore klb_image_header::setDefaultBlockSize;
%ignore klb_image_header::setOptimalBlockSizeInBytes;

// temporarily disable metadata wildcard
%ignore klb_image_header::setMetadata;
%ignore klb_image_header::getMetadataPtr;

// access metadata wildcard through properly named accessors
%ignore metadata;
%rename(getMetadata) getMetadataPtr;

// friendlier class names
%rename(KlbImageHeader) klb_image_header;
%rename(KlbRoi) klb_ROI;
%rename(KlbImageIO) klb_imageIO;
%rename(KlbDataType) KLB_DATA_TYPE;
%rename(KlbCompressionType) KLB_COMPRESSION_TYPE;


%{
// Includes header and wrapper code
#include "common.h"
#include "klb_imageHeader.h"
#include "klb_ROI.h"
#include "klb_imageIO.h"
%}

// Parse header file to generate wrappers
%include "common.h"
%include "klb_imageHeader.h"
%include "klb_ROI.h"
%include "klb_imageIO.h"


// Java wrapper auto-loading of bundled native libs
// Requires class NativeLibraryLoader provided in soures.
// To compile, the following import statement must be
// added to class org.janelia.simview.klb.jni.KlbJni:
// import org.janelia.simview.util.NativeLibraryLoader;
%pragma(java) jniclasscode=%{
    // auto-load native libs
    static {
        final NativeLibraryLoader loader = new NativeLibraryLoader();
        try {
            loader.unpackAndLoadFromResources("klb");
            loader.unpackAndLoadFromResources("klb-jni");
        } catch (UnsatisfiedLinkError e1) {
            try {
                // If loading klb fails with an UnsatisfiedLinkError,
                // most likely the OS is Windows and the Visual C++
                // Redistributable is not installed.
                // Try again, this time loading the runtime libs first.
                loader.unpackAndLoadFromResources("msvcr120");
                loader.unpackAndLoadFromResources("msvcp120");
                loader.unpackAndLoadFromResources("klb");
                loader.unpackAndLoadFromResources("klb-jni");
            } catch (Throwable e2) {
                throw new UnsatisfiedLinkError("[KLB] Failed to unpack or load native KLB libraries.\n" + e2.getMessage());
            }
        } catch (Throwable e3) {
            throw new UnsatisfiedLinkError("[KLB] Failed to unpack or load native KLB libraries.\n" + e3.getMessage());
        }
    }
%}